0  0.250014  0.00258819
1  0.249977  0.00678296
2  0.249868  0.0109764
3  0.249685  0.0151674
4  0.249428  0.0193545
5  0.249099  0.0235365
6  0.248697  0.0277121
7  0.248222  0.0318801
8  0.247675  0.0360391
9  0.247055  0.0401879
10  0.246362  0.0443253
11  0.245598  0.04845
12  0.244762  0.0525607
13  0.243854  0.0566562
14  0.242874  0.0607352
15  0.241824  0.0647966
16  0.240703  0.0688389
17  0.239512  0.0728611
18  0.23825  0.0768619
19  0.236919  0.08084
20  0.235519  0.0847943
21  0.23405  0.0887236
22  0.232512  0.0926266
23  0.230907  0.0965022
24  0.229234  0.100349
25  0.227495  0.104166
26  0.225689  0.107953
27  0.223817  0.111707
28  0.22188  0.115428
29  0.219878  0.119114
30  0.217813  0.122766
31  0.215683  0.12638
32  0.213492  0.129957
33  0.211238  0.133495
34  0.208922  0.136993
35  0.206546  0.14045
36  0.20411  0.143865
37  0.201615  0.147237
38  0.199061  0.150565
39  0.19645  0.153848
40  0.193782  0.157085
41  0.191057  0.160275
42  0.188278  0.163417
43  0.185444  0.16651
44  0.182556  0.169553
45  0.179616  0.172545
46  0.176624  0.175485
47  0.173581  0.178372
48  0.170488  0.181207
49  0.167346  0.183986
50  0.164156  0.186711
51  0.160919  0.189379
52  0.157636  0.19199
53  0.154308  0.194544
54  0.150936  0.197039
55  0.147521  0.199475
56  0.144064  0.201851
57  0.140566  0.204167
58  0.137028  0.206421
59  0.133451  0.208612
60  0.129837  0.210741
61  0.126186  0.212807
62  0.122499  0.214809
63  0.118778  0.216746
64  0.115024  0.218618
65  0.111238  0.220424
66  0.10742  0.222163
67  0.103573  0.223836
68  0.0996977  0.225441
69  0.0957947  0.226979
70  0.0918654  0.228448
71  0.0879111  0.229848
72  0.0839329  0.231179
73  0.0799322  0.232441
74  0.07591  0.233632
75  0.0718676  0.234753
76  0.0678063  0.235803
77  0.0637273  0.236783
78  0.0596318  0.237691
79  0.0555211  0.238527
80  0.0513964  0.239291
81  0.047259  0.239984
82  0.0431102  0.240604
83  0.0389511  0.241151
84  0.0347832  0.241626
85  0.0306075  0.242028
86  0.0264256  0.242357
87  0.0222385  0.242613
88  0.0180475  0.242796
89  0.013854  0.242906
90  0.00965926  0.242943
91  0.00546449  0.242906
92  0.001271  0.242796
93  -0.00291993  0.242613
94  -0.00710704  0.242357
95  -0.011289  0.242028
96  -0.0154646  0.241626
97  -0.0196326  0.241151
98  -0.0237916  0.240604
99  -0.0279405  0.239984
100  -0.0320779  0.239291
101  -0.0362026  0.238527
102  -0.0403133  0.237691
103  -0.0444088  0.236783
104  -0.0484878  0.235803
105  -0.0525491  0.234753
106  -0.0565915  0.233632
107  -0.0606136  0.232441
108  -0.0646144  0.231179
109  -0.0685926  0.229848
110  -0.0725469  0.228448
111  -0.0764762  0.226979
112  -0.0803792  0.225441
113  -0.0842548  0.223836
114  -0.0881018  0.222163
115  -0.091919  0.220424
116  -0.0957053  0.218618
117  -0.0994595  0.216746
118  -0.10318  0.214809
119  -0.106867  0.212807
120  -0.110518  0.210741
121  -0.114133  0.208612
122  -0.117709  0.206421
123  -0.121247  0.204167
124  -0.124745  0.201851
125  -0.128203  0.199475
126  -0.131618  0.197039
127  -0.13499  0.194544
128  -0.138318  0.19199
129  -0.141601  0.189379
130  -0.144838  0.186711
131  -0.148028  0.183986
132  -0.151169  0.181207
133  -0.154262  0.178372
134  -0.157305  0.175485
135  -0.160297  0.172545
136  -0.163237  0.169553
137  -0.166125  0.16651
138  -0.168959  0.163417
139  -0.171739  0.160275
140  -0.174463  0.157085
141  -0.177131  0.153848
142  -0.179743  0.150565
143  -0.182297  0.147237
144  -0.184792  0.143865
145  -0.187228  0.14045
146  -0.189604  0.136993
147  -0.191919  0.133495
148  -0.194173  0.129957
149  -0.196365  0.12638
150  -0.198494  0.122766
151  -0.20056  0.119114
152  -0.202561  0.115428
153  -0.204498  0.111707
154  -0.20637  0.107953
155  -0.208176  0.104166
156  -0.209916  0.100349
157  -0.211588  0.0965022
158  -0.213194  0.0926266
159  -0.214731  0.0887236
160  -0.2162  0.0847943
161  -0.217601  0.08084
162  -0.218932  0.0768619
163  -0.220193  0.0728611
164  -0.221384  0.0688389
165  -0.222506  0.0647966
166  -0.223556  0.0607352
167  -0.224535  0.0566562
168  -0.225443  0.0525607
169  -0.226279  0.04845
170  -0.227044  0.0443253
171  -0.227736  0.0401879
172  -0.228356  0.0360391
173  -0.228904  0.0318801
174  -0.229379  0.0277121
175  -0.229781  0.0235365
176  -0.23011  0.0193545
177  -0.230366  0.0151674
178  -0.230549  0.0109764
179  -0.230659  0.00678296
180  -0.230695  0.00258819
181  -0.230659  -0.00160658
182  -0.230549  -0.00580007
183  -0.230366  -0.009991
184  -0.23011  -0.0141781
185  -0.229781  -0.0183601
186  -0.229379  -0.0225357
187  -0.228904  -0.0267037
188  -0.228356  -0.0308627
189  -0.227736  -0.0350116
190  -0.227044  -0.039149
191  -0.226279  -0.0432736
192  -0.225443  -0.0473844
193  -0.224535  -0.0514798
194  -0.223556  -0.0555589
195  -0.222506  -0.0596202
196  -0.221384  -0.0636625
197  -0.220193  -0.0676847
198  -0.218932  -0.0716855
199  -0.217601  -0.0756636
200  -0.2162  -0.079618
201  -0.214731  -0.0835472
202  -0.213194  -0.0874503
203  -0.211588  -0.0913259
204  -0.209916  -0.0951729
205  -0.208176  -0.0989901
206  -0.20637  -0.102776
207  -0.204498  -0.106531
208  -0.202561  -0.110251
209  -0.20056  -0.113938
210  -0.198494  -0.117589
211  -0.196365  -0.121204
212  -0.194173  -0.12478
213  -0.191919  -0.128318
214  -0.189604  -0.131816
215  -0.187228  -0.135274
216  -0.184792  -0.138689
217  -0.182297  -0.142061
218  -0.179743  -0.145389
219  -0.177131  -0.148672
220  -0.174463  -0.151909
221  -0.171739  -0.155099
222  -0.168959  -0.15824
223  -0.166125  -0.161333
224  -0.163237  -0.164376
225  -0.160297  -0.167368
226  -0.157305  -0.170308
227  -0.154262  -0.173196
228  -0.151169  -0.17603
229  -0.148028  -0.17881
230  -0.144838  -0.181534
231  -0.141601  -0.184202
232  -0.138318  -0.186814
233  -0.13499  -0.189368
234  -0.131618  -0.191863
235  -0.128203  -0.194299
236  -0.124745  -0.196675
237  -0.121247  -0.19899
238  -0.117709  -0.201244
239  -0.114133  -0.203436
240  -0.110518  -0.205565
241  -0.106867  -0.207631
242  -0.10318  -0.209632
243  -0.0994595  -0.211569
244  -0.0957053  -0.213441
245  -0.091919  -0.215247
246  -0.0881018  -0.216987
247  -0.0842548  -0.218659
248  -0.0803792  -0.220265
249  -0.0764762  -0.221802
250  -0.0725469  -0.223271
251  -0.0685926  -0.224672
252  -0.0646144  -0.226003
253  -0.0606136  -0.227264
254  -0.0565915  -0.228456
255  -0.0525491  -0.229577
256  -0.0484878  -0.230627
257  -0.0444088  -0.231606
258  -0.0403133  -0.232514
259  -0.0362026  -0.23335
260  -0.0320779  -0.234115
261  -0.0279405  -0.234807
262  -0.0237916  -0.235427
263  -0.0196326  -0.235975
264  -0.0154646  -0.23645
265  -0.011289  -0.236852
266  -0.00710704  -0.237181
267  -0.00291993  -0.237437
268  0.001271  -0.23762
269  0.00546449  -0.23773
270  0.00965926  -0.237766
271  0.013854  -0.23773
272  0.0180475  -0.23762
273  0.0222385  -0.237437
274  0.0264256  -0.237181
275  0.0306075  -0.236852
276  0.0347832  -0.23645
277  0.0389511  -0.235975
278  0.0431102  -0.235427
279  0.047259  -0.234807
280  0.0513964  -0.234115
281  0.0555211  -0.23335
282  0.0596318  -0.232514
283  0.0637273  -0.231606
284  0.0678063  -0.230627
285  0.0718676  -0.229577
286  0.07591  -0.228456
287  0.0799322  -0.227264
288  0.0839329  -0.226003
289  0.0879111  -0.224672
290  0.0918654  -0.223271
291  0.0957947  -0.221802
292  0.0996977  -0.220265
293  0.103573  -0.218659
294  0.10742  -0.216987
295  0.111238  -0.215247
296  0.115024  -0.213441
297  0.118778  -0.211569
298  0.122499  -0.209632
299  0.126186  -0.207631
300  0.129837  -0.205565
301  0.133451  -0.203436
302  0.137028  -0.201244
303  0.140566  -0.19899
304  0.144064  -0.196675
305  0.147521  -0.194299
306  0.150936  -0.191863
307  0.154308  -0.189368
308  0.157636  -0.186814
309  0.160919  -0.184202
310  0.164156  -0.181534
311  0.167346  -0.17881
312  0.170488  -0.17603
313  0.173581  -0.173196
314  0.176624  -0.170308
315  0.179616  -0.167368
316  0.182556  -0.164376
317  0.185444  -0.161333
318  0.188278  -0.15824
319  0.191057  -0.155099
320  0.193782  -0.151909
321  0.19645  -0.148672
322  0.199061  -0.145389
323  0.201615  -0.142061
324  0.20411  -0.138689
325  0.206546  -0.135274
326  0.208922  -0.131816
327  0.211238  -0.128318
328  0.213492  -0.12478
329  0.215683  -0.121204
330  0.217813  -0.117589
331  0.219878  -0.113938
332  0.22188  -0.110251
333  0.223817  -0.106531
334  0.225689  -0.102776
335  0.227495  -0.0989901
336  0.229234  -0.0951729
337  0.230907  -0.0913259
338  0.232512  -0.0874503
339  0.23405  -0.0835472
340  0.235519  -0.079618
341  0.236919  -0.0756636
342  0.23825  -0.0716855
343  0.239512  -0.0676847
344  0.240703  -0.0636625
345  0.241824  -0.0596202
346  0.242874  -0.0555589
347  0.243854  -0.0514798
348  0.244762  -0.0473844
349  0.245598  -0.0432736
350  0.246362  -0.039149
351  0.247055  -0.0350116
352  0.247675  -0.0308627
353  0.248222  -0.0267037
354  0.248697  -0.0225357
355  0.249099  -0.0183601
356  0.249428  -0.0141781
357  0.249685  -0.009991
358  0.249868  -0.00580007
359  0.249977  -0.00160658
360  0.250014  0.00258819
